{
  "count": 1144,
  "next": "https://release.qa.espressive.com/api/barista/v0.1/entities/?limit=25&offset=25",
  "previous": null,
  "results": [
    {
      "last_sync_time": "2021-06-23T20:16:11.348079Z",
      "is_protected": true,
      "created_in_elc": true,
      "eid": "1a180380-fc30-4117-ae79-dac13fc0ef38",
      "sys_updated_by": "selva.sankaranarayanan@espressive.com",
      "sys_date_updated": "2021-06-23T20:16:11.398777Z",
      "sys_created_by": "eddie.valverde@espressive.com",
      "sys_date_created": "2021-03-31T17:29:28.162758Z",
      "sys_custom_fields": [1, 2, 3, 4],
      "active": true,
      "name": "001Ruben01_Sync",
      "description": null,
      "app_model": null,
      "filter": null,
      "protected_entity": false,
      "type": "choice",
      "app_uri": null,
      "parameters": null,
      "mapping": null,
      "primary_field": null,
      "display_field": null,
      "matching_recognition": false,
      "hide_in_faq": true,
      "default_exclusive": false
    },
    {
      "last_sync_time": "2021-06-23T20:17:34.132585Z",
      "is_protected": true,
      "created_in_elc": true,
      "eid": "6a9dee88-8a26-4b23-9420-1ad5814930f8",
      "sys_updated_by": "selva.sankaranarayanan@espressive.com",
      "sys_date_updated": "2021-06-23T20:17:34.161056Z",
      "sys_created_by": null,
      "sys_date_created": "2019-01-23T16:48:24.998826Z",
      "sys_custom_fields": "Testing the new change",
      "active": true,
      "name": "all_hands_meeting",
      "description": "Entity that covers synonyms for all-hands meeting",
      "app_model": null,
      "filter": null,
      "protected_entity": false,
      "type": "choice",
      "app_uri": null,
      "parameters": null,
      "mapping": null,
      "primary_field": null,
      "display_field": null,
      "matching_recognition": true,
      "hide_in_faq": true,
      "default_exclusive": false
    },
    {
      "last_sync_time": null,
      "is_protected": false,
      "created_in_elc": false,
      "eid": "0ac3bc2d-a19b-4ec2-a4de-74abbfe24d4a",
      "sys_updated_by": "mark@espressive.com",
      "sys_date_updated": "2018-11-05T22:03:33.078617Z",
      "sys_created_by": "daniel@espressive.com",
      "sys_date_created": "2018-03-20T17:01:25.386346Z",
      "sys_custom_fields": null,
      "active": true,
      "name": "AppleDevices",
      "description": null,
      "app_model": null,
      "filter": null,
      "protected_entity": false,
      "type": "reference",
      "app_uri": "api://post:integration/v0.1/methods/com.servicenow.processors.v1.snow_search_sys_choice/invoke/",
      "parameters": {
        "user_id": "44032fcd0f794300672c4cace1050eca",
        "table_name": "cmdb_ci",
        "encoded_query": "nameLIKEapple"
      },
      "mapping": {
        "selector": "records[*]"
      },
      "primary_field": null,
      "display_field": null,
      "matching_recognition": true,
      "hide_in_faq": false,
      "default_exclusive": false
    },
    {
      "last_sync_time": "2021-06-23T20:18:49.617628Z",
      "is_protected": true,
      "created_in_elc": true,
      "eid": "cbc523de-b41c-4f03-b328-6bd94008ebf5",
      "sys_updated_by": "selva.sankaranarayanan@espressive.com",
      "sys_date_updated": "2021-06-23T20:18:58.373802Z",
      "sys_created_by": null,
      "sys_date_created": "2018-09-17T22:51:24.116648Z",
      "sys_custom_fields": null,
      "active": true,
      "name": "Apps",
      "description": "List of Barista supported applications",
      "app_model": null,
      "filter": null,
      "protected_entity": false,
      "type": "choice",
      "app_uri": null,
      "parameters": null,
      "mapping": null,
      "primary_field": null,
      "display_field": "",
      "matching_recognition": true,
      "hide_in_faq": false,
      "default_exclusive": true
    },
    {
      "last_sync_time": "2021-06-23T20:14:00.755967Z",
      "is_protected": true,
      "created_in_elc": true,
      "eid": "9e3c8e81-ab24-49fc-8204-5c1f9467802c",
      "sys_updated_by": "selva.sankaranarayanan@espressive.com",
      "sys_date_updated": "2021-06-23T20:14:00.811456Z",
      "sys_created_by": "selva.sankaranarayanan@espressive.com",
      "sys_date_created": "2021-03-19T22:24:53.807910Z",
      "sys_custom_fields": null,
      "active": true,
      "name": "Archive_email_gmail",
      "description": null,
      "app_model": null,
      "filter": null,
      "protected_entity": false,
      "type": "choice",
      "app_uri": null,
      "parameters": null,
      "mapping": null,
      "primary_field": null,
      "display_field": null,
      "matching_recognition": false,
      "hide_in_faq": true,
      "default_exclusive": false
    },
    {
      "last_sync_time": "2021-06-23T20:21:27.840266Z",
      "is_protected": true,
      "created_in_elc": true,
      "eid": "f213d097-fed1-446b-a6d2-adc632d234d3",
      "sys_updated_by": "selva.sankaranarayanan@espressive.com",
      "sys_date_updated": "2021-06-23T20:21:29.030098Z",
      "sys_created_by": null,
      "sys_date_created": "2020-08-13T14:01:54.244104Z",
      "sys_custom_fields": null,
      "active": true,
      "name": "Archive_email_or_outlook",
      "description": null,
      "app_model": null,
      "filter": null,
      "protected_entity": false,
      "type": "choice",
      "app_uri": null,
      "parameters": null,
      "mapping": null,
      "primary_field": null,
      "display_field": null,
      "matching_recognition": false,
      "hide_in_faq": true,
      "default_exclusive": false
    },
    {
      "last_sync_time": "2021-06-23T20:13:49.815531Z",
      "is_protected": true,
      "created_in_elc": true,
      "eid": "032bcc1d-6391-421f-be3d-fe2cb5a8b523",
      "sys_updated_by": "selva.sankaranarayanan@espressive.com",
      "sys_date_updated": "2021-06-23T20:13:49.841133Z",
      "sys_created_by": null,
      "sys_date_created": "2018-09-17T22:49:50.433995Z",
      "sys_custom_fields": null,
      "active": true,
      "name": "assets.EspAsset",
      "description": null,
      "app_model": "assets.EspAsset",
      "filter": null,
      "protected_entity": true,
      "type": "app_model",
      "app_uri": null,
      "parameters": null,
      "mapping": null,
      "primary_field": null,
      "display_field": null,
      "matching_recognition": false,
      "hide_in_faq": false,
      "default_exclusive": false
    },
    {
      "last_sync_time": "2021-06-23T20:17:11.574769Z",
      "is_protected": true,
      "created_in_elc": true,
      "eid": "b161d780-11e3-4258-8b39-a8b775d5bf36",
      "sys_updated_by": "selva.sankaranarayanan@espressive.com",
      "sys_date_updated": "2021-06-23T20:17:11.589562Z",
      "sys_created_by": null,
      "sys_date_created": "2020-04-22T22:51:14.399811Z",
      "sys_custom_fields": "authentication_types",
      "active": true,
      "name": "authentication_types",
      "description": "",
      "app_model": null,
      "filter": null,
      "protected_entity": false,
      "type": "choice",
      "app_uri": null,
      "parameters": null,
      "mapping": null,
      "primary_field": null,
      "display_field": null,
      "matching_recognition": false,
      "hide_in_faq": true,
      "default_exclusive": false
    },
    {
      "last_sync_time": "2021-06-23T20:08:40.500193Z",
      "is_protected": true,
      "created_in_elc": false,
      "eid": "5f3fdd45-b163-4e8c-9236-923ea0994cb7",
      "sys_updated_by": "selva.sankaranarayanan@espressive.com",
      "sys_date_updated": "2021-06-23T20:08:40.513161Z",
      "sys_created_by": null,
      "sys_date_created": "2020-04-29T04:48:46.581771Z",
      "sys_custom_fields": "Test the syncing",
      "active": true,
      "name": "AutomateTest001",
      "description": null,
      "app_model": null,
      "filter": null,
      "protected_entity": false,
      "type": "choice",
      "app_uri": null,
      "parameters": null,
      "mapping": null,
      "primary_field": null,
      "display_field": null,
      "matching_recognition": false,
      "hide_in_faq": false,
      "default_exclusive": false
    },
    {
      "last_sync_time": "2021-06-23T20:14:39.105637Z",
      "is_protected": true,
      "created_in_elc": true,
      "eid": "aa4774cd-e650-44c3-aee7-03d07a308ee3",
      "sys_updated_by": "selva.sankaranarayanan@espressive.com",
      "sys_date_updated": "2021-06-23T20:14:39.133556Z",
      "sys_created_by": "selva.sankaranarayanan@espressive.com",
      "sys_date_created": "2021-05-04T16:54:15.986745Z",
      "sys_custom_fields": null,
      "active": true,
      "name": "backline_chat_types",
      "description": null,
      "app_model": null,
      "filter": null,
      "protected_entity": false,
      "type": "choice",
      "app_uri": null,
      "parameters": null,
      "mapping": null,
      "primary_field": null,
      "display_field": null,
      "matching_recognition": false,
      "hide_in_faq": true,
      "default_exclusive": false
    },
    {
      "last_sync_time": "2021-06-23T20:13:58.642316Z",
      "is_protected": true,
      "created_in_elc": true,
      "eid": "3195e857-daec-4b90-9723-8d47b3b0b900",
      "sys_updated_by": "selva.sankaranarayanan@espressive.com",
      "sys_date_updated": "2021-06-23T20:13:58.665067Z",
      "sys_created_by": "selva.sankaranarayanan@espressive.com",
      "sys_date_created": "2021-05-04T16:54:47.008147Z",
      "sys_custom_fields": null,
      "active": true,
      "name": "backline_search_chat",
      "description": null,
      "app_model": null,
      "filter": null,
      "protected_entity": false,
      "type": "choice",
      "app_uri": null,
      "parameters": null,
      "mapping": null,
      "primary_field": null,
      "display_field": null,
      "matching_recognition": false,
      "hide_in_faq": true,
      "default_exclusive": false
    },
    {
      "last_sync_time": "2021-06-23T20:14:12.187784Z",
      "is_protected": true,
      "created_in_elc": true,
      "eid": "72f2a137-3699-4add-8c5a-b671810a5174",
      "sys_updated_by": "selva.sankaranarayanan@espressive.com",
      "sys_date_updated": "2021-06-23T20:14:12.278790Z",
      "sys_created_by": null,
      "sys_date_created": "2019-04-11T19:18:25.342053Z",
      "sys_custom_fields": null,
      "active": true,
      "name": "Banking",
      "description": "Entity values associated with banking",
      "app_model": null,
      "filter": null,
      "protected_entity": false,
      "type": "choice",
      "app_uri": null,
      "parameters": null,
      "mapping": null,
      "primary_field": null,
      "display_field": null,
      "matching_recognition": true,
      "hide_in_faq": true,
      "default_exclusive": false
    },
    {
      "last_sync_time": "2021-06-23T20:19:37.379435Z",
      "is_protected": true,
      "created_in_elc": true,
      "eid": "ebfcc9c3-24ac-4bcc-912c-d6b6f0dd0347",
      "sys_updated_by": "selva.sankaranarayanan@espressive.com",
      "sys_date_updated": "2021-06-23T20:19:37.409253Z",
      "sys_created_by": null,
      "sys_date_created": "2018-12-21T17:12:11.514642Z",
      "sys_custom_fields": "Testing",
      "active": true,
      "name": "Barista",
      "description": "different forms of referring to our app",
      "app_model": null,
      "filter": null,
      "protected_entity": false,
      "type": "choice",
      "app_uri": null,
      "parameters": null,
      "mapping": null,
      "primary_field": null,
      "display_field": null,
      "matching_recognition": true,
      "hide_in_faq": true,
      "default_exclusive": false
    },
    {
      "last_sync_time": "2021-06-23T20:14:03.531866Z",
      "is_protected": true,
      "created_in_elc": true,
      "eid": "131f7959-9451-45e3-9bba-46da944a2e6a",
      "sys_updated_by": "selva.sankaranarayanan@espressive.com",
      "sys_date_updated": "2021-06-23T20:14:03.559383Z",
      "sys_created_by": null,
      "sys_date_created": "2020-06-17T15:08:14.715978Z",
      "sys_custom_fields": null,
      "active": true,
      "name": "barista_actions",
      "description": "used for the barista app",
      "app_model": null,
      "filter": null,
      "protected_entity": false,
      "type": "choice",
      "app_uri": null,
      "parameters": null,
      "mapping": null,
      "primary_field": null,
      "display_field": null,
      "matching_recognition": true,
      "hide_in_faq": true,
      "default_exclusive": true
    },
    {
      "last_sync_time": "2021-06-23T20:17:21.351711Z",
      "is_protected": true,
      "created_in_elc": true,
      "eid": "a390bf3c-4feb-49e9-baa1-bd134887b379",
      "sys_updated_by": "selva.sankaranarayanan@espressive.com",
      "sys_date_updated": "2021-06-23T20:17:21.461096Z",
      "sys_created_by": "eddie.valverde@espressive.com",
      "sys_date_created": "2018-12-22T00:13:38.871119Z",
      "sys_custom_fields": null,
      "active": true,
      "name": "barista_app",
      "description": "Parts of the Barista App",
      "app_model": null,
      "filter": null,
      "protected_entity": false,
      "type": "choice",
      "app_uri": null,
      "parameters": null,
      "mapping": null,
      "primary_field": null,
      "display_field": null,
      "matching_recognition": true,
      "hide_in_faq": true,
      "default_exclusive": false
    },
    {
      "last_sync_time": "2021-06-23T20:14:36.732250Z",
      "is_protected": true,
      "created_in_elc": true,
      "eid": "988fcf6a-b600-43bd-834a-080ebffea063",
      "sys_updated_by": "selva.sankaranarayanan@espressive.com",
      "sys_date_updated": "2021-06-23T20:14:36.829368Z",
      "sys_created_by": "selva.sankaranarayanan@espressive.com",
      "sys_date_created": "2021-05-04T16:52:54.415017Z",
      "sys_custom_fields": null,
      "active": true,
      "name": "barista_available_languages",
      "description": null,
      "app_model": null,
      "filter": null,
      "protected_entity": false,
      "type": "choice",
      "app_uri": null,
      "parameters": null,
      "mapping": null,
      "primary_field": null,
      "display_field": null,
      "matching_recognition": false,
      "hide_in_faq": true,
      "default_exclusive": false
    },
    {
      "last_sync_time": "2021-06-23T20:08:56.654149Z",
      "is_protected": true,
      "created_in_elc": true,
      "eid": "41052067-043f-46b5-9d95-a1b2503f846c",
      "sys_updated_by": "selva.sankaranarayanan@espressive.com",
      "sys_date_updated": "2021-06-23T20:08:56.732154Z",
      "sys_created_by": "selva.sankaranarayanan@espressive.com",
      "sys_date_created": "2021-02-09T17:57:14.908849Z",
      "sys_custom_fields": null,
      "active": true,
      "name": "barista_identity_topics",
      "description": null,
      "app_model": null,
      "filter": null,
      "protected_entity": false,
      "type": "choice",
      "app_uri": null,
      "parameters": null,
      "mapping": null,
      "primary_field": null,
      "display_field": null,
      "matching_recognition": true,
      "hide_in_faq": true,
      "default_exclusive": true
    },
    {
      "last_sync_time": "2021-06-23T20:15:46.413473Z",
      "is_protected": true,
      "created_in_elc": true,
      "eid": "29b6465b-be44-4d05-886f-46236ffd4f4e",
      "sys_updated_by": "selva.sankaranarayanan@espressive.com",
      "sys_date_updated": "2021-06-23T20:15:46.575189Z",
      "sys_created_by": null,
      "sys_date_created": "2020-08-25T17:48:00.527374Z",
      "sys_custom_fields": null,
      "active": true,
      "name": "barista_language",
      "description": "Languages that are supported by Barista",
      "app_model": null,
      "filter": null,
      "protected_entity": false,
      "type": "choice",
      "app_uri": null,
      "parameters": null,
      "mapping": null,
      "primary_field": null,
      "display_field": null,
      "matching_recognition": true,
      "hide_in_faq": true,
      "default_exclusive": false
    },
    {
      "last_sync_time": "2021-06-23T20:17:08.749526Z",
      "is_protected": true,
      "created_in_elc": true,
      "eid": "4ef043f1-87f0-4516-8a79-f9f36a02d5b0",
      "sys_updated_by": "selva.sankaranarayanan@espressive.com",
      "sys_date_updated": "2021-06-23T20:17:08.778617Z",
      "sys_created_by": null,
      "sys_date_created": "2019-12-27T00:38:11.946336Z",
      "sys_custom_fields": null,
      "active": true,
      "name": "barista_thank_you",
      "description": "used for chit chat",
      "app_model": null,
      "filter": null,
      "protected_entity": false,
      "type": "choice",
      "app_uri": null,
      "parameters": null,
      "mapping": null,
      "primary_field": null,
      "display_field": null,
      "matching_recognition": true,
      "hide_in_faq": true,
      "default_exclusive": false
    },
    {
      "last_sync_time": null,
      "is_protected": false,
      "created_in_elc": false,
      "eid": "b9995a8f-5970-4858-b4de-ef1f3f3717ba",
      "sys_updated_by": "alex@espressive.com",
      "sys_date_updated": "2019-10-28T16:17:35.216676Z",
      "sys_created_by": "alex@espressive.com",
      "sys_date_created": "2019-10-28T15:52:15.653783Z",
      "sys_custom_fields": null,
      "active": true,
      "name": "BCBS.task_getter",
      "description": "Gettin' the Task",
      "app_model": null,
      "filter": null,
      "protected_entity": false,
      "type": "reference",
      "app_uri": "api://post:integration/servicenow/v0.1/custom/search/",
      "parameters": {
        "table_name": "task",
        "encoded_query": "sys_class_name=incident^ref_incident.caller_id=77ad8176731313005754660c4cf6a7de^active=true"
      },
      "mapping": {
        "selector": "records[*]"
      },
      "primary_field": "sys_id",
      "display_field": "number",
      "matching_recognition": false,
      "hide_in_faq": false,
      "default_exclusive": false
    },
    {
      "last_sync_time": "2019-11-08T21:35:13.839095Z",
      "is_protected": false,
      "created_in_elc": false,
      "eid": "9e6559b2-9c6a-4ffa-b657-f025dc7d7bf1",
      "sys_updated_by": null,
      "sys_date_updated": "2020-06-11T21:48:47.386426Z",
      "sys_created_by": null,
      "sys_date_created": "2020-06-11T21:48:47.386454Z",
      "sys_custom_fields": null,
      "active": true,
      "name": "bms.continue",
      "description": "continue",
      "app_model": null,
      "filter": null,
      "protected_entity": false,
      "type": "choice",
      "app_uri": null,
      "parameters": null,
      "mapping": null,
      "primary_field": null,
      "display_field": null,
      "matching_recognition": true,
      "hide_in_faq": false,
      "default_exclusive": false
    },
    {
      "last_sync_time": null,
      "is_protected": false,
      "created_in_elc": false,
      "eid": "a050c613-62ac-49d3-8f63-3e17a560a91f",
      "sys_updated_by": null,
      "sys_date_updated": "2020-06-11T21:48:47.339281Z",
      "sys_created_by": null,
      "sys_date_created": "2020-06-11T21:48:47.339312Z",
      "sys_custom_fields": "",
      "active": true,
      "name": "bms_IT_setup_topics",
      "description": "words that are commonly used in phrases that have to do with setting up an application",
      "app_model": null,
      "filter": null,
      "protected_entity": false,
      "type": "choice",
      "app_uri": null,
      "parameters": null,
      "mapping": null,
      "primary_field": null,
      "display_field": null,
      "matching_recognition": true,
      "hide_in_faq": false,
      "default_exclusive": false
    },
    {
      "last_sync_time": "2021-06-23T20:18:15.726528Z",
      "is_protected": true,
      "created_in_elc": true,
      "eid": "beda8834-e212-4689-ada8-ba3ebbf79ae0",
      "sys_updated_by": "selva.sankaranarayanan@espressive.com",
      "sys_date_updated": "2021-06-23T20:18:15.766731Z",
      "sys_created_by": null,
      "sys_date_created": "2018-12-10T21:22:44.280797Z",
      "sys_custom_fields": null,
      "active": true,
      "name": "bug.priority",
      "description": "priority from bug reported",
      "app_model": null,
      "filter": null,
      "protected_entity": false,
      "type": "choice",
      "app_uri": null,
      "parameters": null,
      "mapping": null,
      "primary_field": null,
      "display_field": null,
      "matching_recognition": false,
      "hide_in_faq": true,
      "default_exclusive": false
    },
    {
      "last_sync_time": "2021-06-23T20:18:48.242529Z",
      "is_protected": true,
      "created_in_elc": true,
      "eid": "be4f13a4-ba29-428c-a2d1-731556048d37",
      "sys_updated_by": "selva.sankaranarayanan@espressive.com",
      "sys_date_updated": "2021-06-23T20:18:48.249310Z",
      "sys_created_by": null,
      "sys_date_created": "2019-01-17T22:00:49.468356Z",
      "sys_custom_fields": null,
      "active": true,
      "name": "Building",
      "description": "Location Entity for just Building",
      "app_model": "places.EspLocation",
      "filter": "location_type_id__EQ=7",
      "protected_entity": false,
      "type": "app_model",
      "app_uri": null,
      "parameters": null,
      "mapping": null,
      "primary_field": null,
      "display_field": null,
      "matching_recognition": false,
      "hide_in_faq": true,
      "default_exclusive": false
    },
    {
      "last_sync_time": "2021-06-23T20:23:43.907433Z",
      "is_protected": true,
      "created_in_elc": true,
      "eid": "1bc5d860-1e6f-41a1-b81c-68c122ee1985",
      "sys_updated_by": "selva.sankaranarayanan@espressive.com",
      "sys_date_updated": "2021-06-23T20:23:44.002619Z",
      "sys_created_by": null,
      "sys_date_created": "2019-01-10T17:20:25.239282Z",
      "sys_custom_fields": null,
      "active": true,
      "name": "Business_Card",
      "description": "Entity used to indicate different ways to represent the word business card",
      "app_model": null,
      "filter": null,
      "protected_entity": false,
      "type": "choice",
      "app_uri": null,
      "parameters": null,
      "mapping": null,
      "primary_field": null,
      "display_field": null,
      "matching_recognition": true,
      "hide_in_faq": true,
      "default_exclusive": false
    }
  ]
}
