{
  "count": 1144,
  "next": "https://tenant.espressive.com/api/barista/v0.1/entities/?limit=25&offset=25",
  "previous": null,
  "results": [
    {
      "last_sync_time": "2021-06-23T20:16:11.348079Z",
      "is_protected": true,
      "created_in_elc": true,
      "eid": "1a180380-fc30-4117-ae79-dac13fc0ef38",
      "sys_updated_by": "test@espressive.com",
      "sys_date_updated": "2021-06-23T20:16:11.398777Z",
      "sys_created_by": "test@espressive.com",
      "sys_date_created": "2021-03-31T17:29:28.162758Z",
      "sys_custom_fields": [1, 2, 3, 4],
      "active": true,
      "name": "Check the New Version - Feb 1 st cycle",
      "description": null,
      "app_model": null,
      "filter": null,
      "protected_entity": false,
      "type": "choice",
      "app_uri": null,
      "parameters": null,
      "mapping": null,
      "primary_field": null,
      "display_field": null,
      "matching_recognition": false,
      "hide_in_faq": true,
      "default_exclusive": false
    },
    {
      "last_sync_time": "2021-06-23T20:17:34.132585Z",
      "is_protected": true,
      "created_in_elc": true,
      "eid": "6a9dee88-8a26-4b23-9420-1ad5814930f8",
      "sys_updated_by": "test@espressive.com",
      "sys_date_updated": "2021-06-23T20:17:34.161056Z",
      "sys_created_by": null,
      "sys_date_created": "2019-01-23T16:48:24.998826Z",
      "sys_custom_fields": "Testing the new change",
      "active": true,
      "name": "Fear financial join add home information prepare design.",
      "description": "Entity that covers synonyms for all-hands meeting",
      "app_model": null,
      "filter": null,
      "protected_entity": false,
      "type": "choice",
      "app_uri": null,
      "parameters": null,
      "mapping": null,
      "primary_field": null,
      "display_field": null,
      "matching_recognition": true,
      "hide_in_faq": true,
      "default_exclusive": false
    },
    {
      "last_sync_time": null,
      "is_protected": false,
      "created_in_elc": false,
      "eid": "0ac3bc2d-a19b-4ec2-a4de-74abbfe24d4a",
      "sys_updated_by": "mark@espressive.com",
      "sys_date_updated": "2018-11-05T22:03:33.078617Z",
      "sys_created_by": "daniel@espressive.com",
      "sys_date_created": "2018-03-20T17:01:25.386346Z",
      "sys_custom_fields": null,
      "active": true,
      "name": "Auto Tuneable Electric Guitar from Fender",
      "description": null,
      "app_model": null,
      "filter": null,
      "protected_entity": false,
      "type": "reference",
      "app_uri": "api://post:integration/v0.1/methods/com.servicenow.processors.v1.snow_search_sys_choice/invoke/",
      "parameters": {
        "user_id": "44032fcd0f794300672c4cace1050eca",
        "table_name": "cmdb_ci",
        "encoded_query": "nameLIKEapple"
      },
      "mapping": {
        "selector": "records[*]"
      },
      "primary_field": null,
      "display_field": null,
      "matching_recognition": true,
      "hide_in_faq": false,
      "default_exclusive": false
    },
    {
      "last_sync_time": "2021-06-23T20:18:49.617628Z",
      "is_protected": true,
      "created_in_elc": true,
      "eid": "cbc523de-b41c-4f03-b328-6bd94008ebf5",
      "sys_updated_by": "test@espressive.com",
      "sys_date_updated": "2021-06-23T20:18:58.373802Z",
      "sys_created_by": null,
      "sys_date_created": "2018-09-17T22:51:24.116648Z",
      "sys_custom_fields": null,
      "active": true,
      "name": "Back into media local then.",
      "description": "List of Barista supported applications",
      "app_model": null,
      "filter": null,
      "protected_entity": false,
      "type": "choice",
      "app_uri": null,
      "parameters": null,
      "mapping": null,
      "primary_field": null,
      "display_field": "",
      "matching_recognition": true,
      "hide_in_faq": false,
      "default_exclusive": true
    },
    {
      "last_sync_time": "2021-06-23T20:14:00.755967Z",
      "is_protected": true,
      "created_in_elc": true,
      "eid": "9e3c8e81-ab24-49fc-8204-5c1f9467802c",
      "sys_updated_by": "test@espressive.com",
      "sys_date_updated": "2021-06-23T20:14:00.811456Z",
      "sys_created_by": "test@espressive.com",
      "sys_date_created": "2021-03-19T22:24:53.807910Z",
      "sys_custom_fields": null,
      "active": true,
      "name": "The Safest Places to Travel in 2021",
      "description": null,
      "app_model": null,
      "filter": null,
      "protected_entity": false,
      "type": "choice",
      "app_uri": null,
      "parameters": null,
      "mapping": null,
      "primary_field": null,
      "display_field": null,
      "matching_recognition": false,
      "hide_in_faq": true,
      "default_exclusive": false
    }
  ]
}
